{
  "href" : "https://api.spotify.com/v1/artists/3Sz7ZnJQBIHsXLUSo0OQtM/albums?offset=0&limit=20&include_groups=album&market=CA",
  "items" : [ {
    "album_group" : "album",
    "album_type" : "album",
    "artists" : [ {
      "external_urls" : {
        "spotify" : "https://open.spotify.com/artist/3Sz7ZnJQBIHsXLUSo0OQtM"
      },
      "href" : "https://api.spotify.com/v1/artists/3Sz7ZnJQBIHsXLUSo0OQtM",
      "id" : "3Sz7ZnJQBIHsXLUSo0OQtM",
      "name" : "Mac DeMarco",
      "type" : "artist",
      "uri" : "spotify:artist:3Sz7ZnJQBIHsXLUSo0OQtM"
    } ],
    "external_urls" : {
      "spotify" : "https://open.spotify.com/album/5fyal5wIKWcOHjUsGq1I9X"
    },
    "href" : "https://api.spotify.com/v1/albums/5fyal5wIKWcOHjUsGq1I9X",
    "id" : "5fyal5wIKWcOHjUsGq1I9X",
    "images" : [ {
      "height" : 640,
      "url" : "https://i.scdn.co/image/ab67616d0000b273b098dbe0442796f63798495f",
      "width" : 640
    }, {
      "height" : 300,
      "url" : "https://i.scdn.co/image/ab67616d00001e02b098dbe0442796f63798495f",
      "width" : 300
    }, {
      "height" : 64,
      "url" : "https://i.scdn.co/image/ab67616d00004851b098dbe0442796f63798495f",
      "width" : 64
    } ],
    "name" : "Other Here Comes The Cowboy Demos",
    "release_date" : "2020-10-09",
    "release_date_precision" : "day",
    "total_tracks" : 11,
    "type" : "album",
    "uri" : "spotify:album:5fyal5wIKWcOHjUsGq1I9X"
  }, {
    "album_group" : "album",
    "album_type" : "album",
    "artists" : [ {
      "external_urls" : {
        "spotify" : "https://open.spotify.com/artist/3Sz7ZnJQBIHsXLUSo0OQtM"
      },
      "href" : "https://api.spotify.com/v1/artists/3Sz7ZnJQBIHsXLUSo0OQtM",
      "id" : "3Sz7ZnJQBIHsXLUSo0OQtM",
      "name" : "Mac DeMarco",
      "type" : "artist",
      "uri" : "spotify:artist:3Sz7ZnJQBIHsXLUSo0OQtM"
    } ],
    "external_urls" : {
      "spotify" : "https://open.spotify.com/album/4JIQYfd4ykl6Hk9xs2AHUu"
    },
    "href" : "https://api.spotify.com/v1/albums/4JIQYfd4ykl6Hk9xs2AHUu",
    "id" : "4JIQYfd4ykl6Hk9xs2AHUu",
    "images" : [ {
      "height" : 640,
      "url" : "https://i.scdn.co/image/ab67616d0000b273c3ee60fe5c7ddb4ea8e0582b",
      "width" : 640
    }, {
      "height" : 300,
      "url" : "https://i.scdn.co/image/ab67616d00001e02c3ee60fe5c7ddb4ea8e0582b",
      "width" : 300
    }, {
      "height" : 64,
      "url" : "https://i.scdn.co/image/ab67616d00004851c3ee60fe5c7ddb4ea8e0582b",
      "width" : 64
    } ],
    "name" : "Other Here Comes The Cowboy Demos",
    "release_date" : "2020-10-09",
    "release_date_precision" : "day",
    "total_tracks" : 11,
    "type" : "album",
    "uri" : "spotify:album:4JIQYfd4ykl6Hk9xs2AHUu"
  }, {
    "album_group" : "album",
    "album_type" : "album",
    "artists" : [ {
      "external_urls" : {
        "spotify" : "https://open.spotify.com/artist/3Sz7ZnJQBIHsXLUSo0OQtM"
      },
      "href" : "https://api.spotify.com/v1/artists/3Sz7ZnJQBIHsXLUSo0OQtM",
      "id" : "3Sz7ZnJQBIHsXLUSo0OQtM",
      "name" : "Mac DeMarco",
      "type" : "artist",
      "uri" : "spotify:artist:3Sz7ZnJQBIHsXLUSo0OQtM"
    } ],
    "external_urls" : {
      "spotify" : "https://open.spotify.com/album/7qLZ8hrRF2fHKTUjTMyYjV"
    },
    "href" : "https://api.spotify.com/v1/albums/7qLZ8hrRF2fHKTUjTMyYjV",
    "id" : "7qLZ8hrRF2fHKTUjTMyYjV",
    "images" : [ {
      "height" : 640,
      "url" : "https://i.scdn.co/image/ab67616d0000b273b4f9cc835f5c3f7bd255b093",
      "width" : 640
    }, {
      "height" : 300,
      "url" : "https://i.scdn.co/image/ab67616d00001e02b4f9cc835f5c3f7bd255b093",
      "width" : 300
    }, {
      "height" : 64,
      "url" : "https://i.scdn.co/image/ab67616d00004851b4f9cc835f5c3f7bd255b093",
      "width" : 64
    } ],
    "name" : "Here Comes The Cowboy Demos",
    "release_date" : "2020-08-28",
    "release_date_precision" : "day",
    "total_tracks" : 14,
    "type" : "album",
    "uri" : "spotify:album:7qLZ8hrRF2fHKTUjTMyYjV"
  }, {
    "album_group" : "album",
    "album_type" : "album",
    "artists" : [ {
      "external_urls" : {
        "spotify" : "https://open.spotify.com/artist/3Sz7ZnJQBIHsXLUSo0OQtM"
      },
      "href" : "https://api.spotify.com/v1/artists/3Sz7ZnJQBIHsXLUSo0OQtM",
      "id" : "3Sz7ZnJQBIHsXLUSo0OQtM",
      "name" : "Mac DeMarco",
      "type" : "artist",
      "uri" : "spotify:artist:3Sz7ZnJQBIHsXLUSo0OQtM"
    } ],
    "external_urls" : {
      "spotify" : "https://open.spotify.com/album/0ptcnYAUbaJpdR4KX1eK4W"
    },
    "href" : "https://api.spotify.com/v1/albums/0ptcnYAUbaJpdR4KX1eK4W",
    "id" : "0ptcnYAUbaJpdR4KX1eK4W",
    "images" : [ {
      "height" : 640,
      "url" : "https://i.scdn.co/image/ab67616d0000b273eaa018cdceff01fd18c0dd20",
      "width" : 640
    }, {
      "height" : 300,
      "url" : "https://i.scdn.co/image/ab67616d00001e02eaa018cdceff01fd18c0dd20",
      "width" : 300
    }, {
      "height" : 64,
      "url" : "https://i.scdn.co/image/ab67616d00004851eaa018cdceff01fd18c0dd20",
      "width" : 64
    } ],
    "name" : "Here Comes The Cowboy Demos",
    "release_date" : "2020-08-28",
    "release_date_precision" : "day",
    "total_tracks" : 14,
    "type" : "album",
    "uri" : "spotify:album:0ptcnYAUbaJpdR4KX1eK4W"
  }, {
    "album_group" : "album",
    "album_type" : "album",
    "artists" : [ {
      "external_urls" : {
        "spotify" : "https://open.spotify.com/artist/3Sz7ZnJQBIHsXLUSo0OQtM"
      },
      "href" : "https://api.spotify.com/v1/artists/3Sz7ZnJQBIHsXLUSo0OQtM",
      "id" : "3Sz7ZnJQBIHsXLUSo0OQtM",
      "name" : "Mac DeMarco",
      "type" : "artist",
      "uri" : "spotify:artist:3Sz7ZnJQBIHsXLUSo0OQtM"
    } ],
    "external_urls" : {
      "spotify" : "https://open.spotify.com/album/67PsnkYVPNpEsZffyTWGgW"
    },
    "href" : "https://api.spotify.com/v1/albums/67PsnkYVPNpEsZffyTWGgW",
    "id" : "67PsnkYVPNpEsZffyTWGgW",
    "images" : [ {
      "height" : 640,
      "url" : "https://i.scdn.co/image/ab67616d0000b273fa1323bb50728c7489980672",
      "width" : 640
    }, {
      "height" : 300,
      "url" : "https://i.scdn.co/image/ab67616d00001e02fa1323bb50728c7489980672",
      "width" : 300
    }, {
      "height" : 64,
      "url" : "https://i.scdn.co/image/ab67616d00004851fa1323bb50728c7489980672",
      "width" : 64
    } ],
    "name" : "Here Comes The Cowboy",
    "release_date" : "2019-05-10",
    "release_date_precision" : "day",
    "total_tracks" : 13,
    "type" : "album",
    "uri" : "spotify:album:67PsnkYVPNpEsZffyTWGgW"
  }, {
    "album_group" : "album",
    "album_type" : "album",
    "artists" : [ {
      "external_urls" : {
        "spotify" : "https://open.spotify.com/artist/3Sz7ZnJQBIHsXLUSo0OQtM"
      },
      "href" : "https://api.spotify.com/v1/artists/3Sz7ZnJQBIHsXLUSo0OQtM",
      "id" : "3Sz7ZnJQBIHsXLUSo0OQtM",
      "name" : "Mac DeMarco",
      "type" : "artist",
      "uri" : "spotify:artist:3Sz7ZnJQBIHsXLUSo0OQtM"
    } ],
    "external_urls" : {
      "spotify" : "https://open.spotify.com/album/4i608RpN07GeF7DBW0N1nA"
    },
    "href" : "https://api.spotify.com/v1/albums/4i608RpN07GeF7DBW0N1nA",
    "id" : "4i608RpN07GeF7DBW0N1nA",
    "images" : [ {
      "height" : 640,
      "url" : "https://i.scdn.co/image/ab67616d0000b2732866217fb30f5428cd77fde4",
      "width" : 640
    }, {
      "height" : 300,
      "url" : "https://i.scdn.co/image/ab67616d00001e022866217fb30f5428cd77fde4",
      "width" : 300
    }, {
      "height" : 64,
      "url" : "https://i.scdn.co/image/ab67616d000048512866217fb30f5428cd77fde4",
      "width" : 64
    } ],
    "name" : "Here Comes The Cowboy",
    "release_date" : "2019-05-10",
    "release_date_precision" : "day",
    "total_tracks" : 13,
    "type" : "album",
    "uri" : "spotify:album:4i608RpN07GeF7DBW0N1nA"
  }, {
    "album_group" : "album",
    "album_type" : "album",
    "artists" : [ {
      "external_urls" : {
        "spotify" : "https://open.spotify.com/artist/3Sz7ZnJQBIHsXLUSo0OQtM"
      },
      "href" : "https://api.spotify.com/v1/artists/3Sz7ZnJQBIHsXLUSo0OQtM",
      "id" : "3Sz7ZnJQBIHsXLUSo0OQtM",
      "name" : "Mac DeMarco",
      "type" : "artist",
      "uri" : "spotify:artist:3Sz7ZnJQBIHsXLUSo0OQtM"
    } ],
    "external_urls" : {
      "spotify" : "https://open.spotify.com/album/3oMrhnFjxkH6ccmXE4ltVn"
    },
    "href" : "https://api.spotify.com/v1/albums/3oMrhnFjxkH6ccmXE4ltVn",
    "id" : "3oMrhnFjxkH6ccmXE4ltVn",
    "images" : [ {
      "height" : 640,
      "url" : "https://i.scdn.co/image/ab67616d0000b27306bcba8c72327edfdf89583f",
      "width" : 640
    }, {
      "height" : 300,
      "url" : "https://i.scdn.co/image/ab67616d00001e0206bcba8c72327edfdf89583f",
      "width" : 300
    }, {
      "height" : 64,
      "url" : "https://i.scdn.co/image/ab67616d0000485106bcba8c72327edfdf89583f",
      "width" : 64
    } ],
    "name" : "Old Dog Demos",
    "release_date" : "2018-04-21",
    "release_date_precision" : "day",
    "total_tracks" : 15,
    "type" : "album",
    "uri" : "spotify:album:3oMrhnFjxkH6ccmXE4ltVn"
  }, {
    "album_group" : "album",
    "album_type" : "album",
    "artists" : [ {
      "external_urls" : {
        "spotify" : "https://open.spotify.com/artist/3Sz7ZnJQBIHsXLUSo0OQtM"
      },
      "href" : "https://api.spotify.com/v1/artists/3Sz7ZnJQBIHsXLUSo0OQtM",
      "id" : "3Sz7ZnJQBIHsXLUSo0OQtM",
      "name" : "Mac DeMarco",
      "type" : "artist",
      "uri" : "spotify:artist:3Sz7ZnJQBIHsXLUSo0OQtM"
    } ],
    "external_urls" : {
      "spotify" : "https://open.spotify.com/album/4NNq2vwTapv4fSJcrZbPH7"
    },
    "href" : "https://api.spotify.com/v1/albums/4NNq2vwTapv4fSJcrZbPH7",
    "id" : "4NNq2vwTapv4fSJcrZbPH7",
    "images" : [ {
      "height" : 640,
      "url" : "https://i.scdn.co/image/ab67616d0000b273d18fa8f63707115cb1b38f65",
      "width" : 640
    }, {
      "height" : 300,
      "url" : "https://i.scdn.co/image/ab67616d00001e02d18fa8f63707115cb1b38f65",
      "width" : 300
    }, {
      "height" : 64,
      "url" : "https://i.scdn.co/image/ab67616d00004851d18fa8f63707115cb1b38f65",
      "width" : 64
    } ],
    "name" : "This Old Dog",
    "release_date" : "2017-05-05",
    "release_date_precision" : "day",
    "total_tracks" : 13,
    "type" : "album",
    "uri" : "spotify:album:4NNq2vwTapv4fSJcrZbPH7"
  }, {
    "album_group" : "album",
    "album_type" : "album",
    "artists" : [ {
      "external_urls" : {
        "spotify" : "https://open.spotify.com/artist/3Sz7ZnJQBIHsXLUSo0OQtM"
      },
      "href" : "https://api.spotify.com/v1/artists/3Sz7ZnJQBIHsXLUSo0OQtM",
      "id" : "3Sz7ZnJQBIHsXLUSo0OQtM",
      "name" : "Mac DeMarco",
      "type" : "artist",
      "uri" : "spotify:artist:3Sz7ZnJQBIHsXLUSo0OQtM"
    } ],
    "external_urls" : {
      "spotify" : "https://open.spotify.com/album/0ewX28ddLRkurAnlVqkp5V"
    },
    "href" : "https://api.spotify.com/v1/albums/0ewX28ddLRkurAnlVqkp5V",
    "id" : "0ewX28ddLRkurAnlVqkp5V",
    "images" : [ {
      "height" : 640,
      "url" : "https://i.scdn.co/image/ab67616d0000b273f8515e26f724792151663214",
      "width" : 640
    }, {
      "height" : 300,
      "url" : "https://i.scdn.co/image/ab67616d00001e02f8515e26f724792151663214",
      "width" : 300
    }, {
      "height" : 64,
      "url" : "https://i.scdn.co/image/ab67616d00004851f8515e26f724792151663214",
      "width" : 64
    } ],
    "name" : "Another (Demo) One",
    "release_date" : "2016-04-16",
    "release_date_precision" : "day",
    "total_tracks" : 16,
    "type" : "album",
    "uri" : "spotify:album:0ewX28ddLRkurAnlVqkp5V"
  }, {
    "album_group" : "album",
    "album_type" : "album",
    "artists" : [ {
      "external_urls" : {
        "spotify" : "https://open.spotify.com/artist/3Sz7ZnJQBIHsXLUSo0OQtM"
      },
      "href" : "https://api.spotify.com/v1/artists/3Sz7ZnJQBIHsXLUSo0OQtM",
      "id" : "3Sz7ZnJQBIHsXLUSo0OQtM",
      "name" : "Mac DeMarco",
      "type" : "artist",
      "uri" : "spotify:artist:3Sz7ZnJQBIHsXLUSo0OQtM"
    } ],
    "external_urls" : {
      "spotify" : "https://open.spotify.com/album/6Hoxt1Y1rPd96aymfYlM0h"
    },
    "href" : "https://api.spotify.com/v1/albums/6Hoxt1Y1rPd96aymfYlM0h",
    "id" : "6Hoxt1Y1rPd96aymfYlM0h",
    "images" : [ {
      "height" : 640,
      "url" : "https://i.scdn.co/image/ab67616d0000b27337fafa64d085bc1342c13b5f",
      "width" : 640
    }, {
      "height" : 300,
      "url" : "https://i.scdn.co/image/ab67616d00001e0237fafa64d085bc1342c13b5f",
      "width" : 300
    }, {
      "height" : 64,
      "url" : "https://i.scdn.co/image/ab67616d0000485137fafa64d085bc1342c13b5f",
      "width" : 64
    } ],
    "name" : "Another One",
    "release_date" : "2015-08-07",
    "release_date_precision" : "day",
    "total_tracks" : 8,
    "type" : "album",
    "uri" : "spotify:album:6Hoxt1Y1rPd96aymfYlM0h"
  }, {
    "album_group" : "album",
    "album_type" : "album",
    "artists" : [ {
      "external_urls" : {
        "spotify" : "https://open.spotify.com/artist/3Sz7ZnJQBIHsXLUSo0OQtM"
      },
      "href" : "https://api.spotify.com/v1/artists/3Sz7ZnJQBIHsXLUSo0OQtM",
      "id" : "3Sz7ZnJQBIHsXLUSo0OQtM",
      "name" : "Mac DeMarco",
      "type" : "artist",
      "uri" : "spotify:artist:3Sz7ZnJQBIHsXLUSo0OQtM"
    } ],
    "external_urls" : {
      "spotify" : "https://open.spotify.com/album/5FiDVzxLqGtYjF5yzmMoj4"
    },
    "href" : "https://api.spotify.com/v1/albums/5FiDVzxLqGtYjF5yzmMoj4",
    "id" : "5FiDVzxLqGtYjF5yzmMoj4",
    "images" : [ {
      "height" : 640,
      "url" : "https://i.scdn.co/image/ab67616d0000b273b395acedffa5fa8e7696aea2",
      "width" : 640
    }, {
      "height" : 300,
      "url" : "https://i.scdn.co/image/ab67616d00001e02b395acedffa5fa8e7696aea2",
      "width" : 300
    }, {
      "height" : 64,
      "url" : "https://i.scdn.co/image/ab67616d00004851b395acedffa5fa8e7696aea2",
      "width" : 64
    } ],
    "name" : "Another One",
    "release_date" : "2015-08-07",
    "release_date_precision" : "day",
    "total_tracks" : 8,
    "type" : "album",
    "uri" : "spotify:album:5FiDVzxLqGtYjF5yzmMoj4"
  }, {
    "album_group" : "album",
    "album_type" : "album",
    "artists" : [ {
      "external_urls" : {
        "spotify" : "https://open.spotify.com/artist/3Sz7ZnJQBIHsXLUSo0OQtM"
      },
      "href" : "https://api.spotify.com/v1/artists/3Sz7ZnJQBIHsXLUSo0OQtM",
      "id" : "3Sz7ZnJQBIHsXLUSo0OQtM",
      "name" : "Mac DeMarco",
      "type" : "artist",
      "uri" : "spotify:artist:3Sz7ZnJQBIHsXLUSo0OQtM"
    } ],
    "external_urls" : {
      "spotify" : "https://open.spotify.com/album/73A5i6uEMBa2qpGDKdZu3u"
    },
    "href" : "https://api.spotify.com/v1/albums/73A5i6uEMBa2qpGDKdZu3u",
    "id" : "73A5i6uEMBa2qpGDKdZu3u",
    "images" : [ {
      "height" : 640,
      "url" : "https://i.scdn.co/image/ab67616d0000b27340f63022508f00ea22a12baf",
      "width" : 640
    }, {
      "height" : 300,
      "url" : "https://i.scdn.co/image/ab67616d00001e0240f63022508f00ea22a12baf",
      "width" : 300
    }, {
      "height" : 64,
      "url" : "https://i.scdn.co/image/ab67616d0000485140f63022508f00ea22a12baf",
      "width" : 64
    } ],
    "name" : "Another One",
    "release_date" : "2015-07-08",
    "release_date_precision" : "day",
    "total_tracks" : 16,
    "type" : "album",
    "uri" : "spotify:album:73A5i6uEMBa2qpGDKdZu3u"
  }, {
    "album_group" : "album",
    "album_type" : "album",
    "artists" : [ {
      "external_urls" : {
        "spotify" : "https://open.spotify.com/artist/3Sz7ZnJQBIHsXLUSo0OQtM"
      },
      "href" : "https://api.spotify.com/v1/artists/3Sz7ZnJQBIHsXLUSo0OQtM",
      "id" : "3Sz7ZnJQBIHsXLUSo0OQtM",
      "name" : "Mac DeMarco",
      "type" : "artist",
      "uri" : "spotify:artist:3Sz7ZnJQBIHsXLUSo0OQtM"
    } ],
    "external_urls" : {
      "spotify" : "https://open.spotify.com/album/2MKZwFFF7n4KvtEQpTGMaa"
    },
    "href" : "https://api.spotify.com/v1/albums/2MKZwFFF7n4KvtEQpTGMaa",
    "id" : "2MKZwFFF7n4KvtEQpTGMaa",
    "images" : [ {
      "height" : 640,
      "url" : "https://i.scdn.co/image/ab67616d0000b2732da1c1aab2f7413051d16fb6",
      "width" : 640
    }, {
      "height" : 300,
      "url" : "https://i.scdn.co/image/ab67616d00001e022da1c1aab2f7413051d16fb6",
      "width" : 300
    }, {
      "height" : 64,
      "url" : "https://i.scdn.co/image/ab67616d000048512da1c1aab2f7413051d16fb6",
      "width" : 64
    } ],
    "name" : "Another One",
    "release_date" : "2015-07-08",
    "release_date_precision" : "day",
    "total_tracks" : 8,
    "type" : "album",
    "uri" : "spotify:album:2MKZwFFF7n4KvtEQpTGMaa"
  }, {
    "album_group" : "album",
    "album_type" : "album",
    "artists" : [ {
      "external_urls" : {
        "spotify" : "https://open.spotify.com/artist/3Sz7ZnJQBIHsXLUSo0OQtM"
      },
      "href" : "https://api.spotify.com/v1/artists/3Sz7ZnJQBIHsXLUSo0OQtM",
      "id" : "3Sz7ZnJQBIHsXLUSo0OQtM",
      "name" : "Mac DeMarco",
      "type" : "artist",
      "uri" : "spotify:artist:3Sz7ZnJQBIHsXLUSo0OQtM"
    } ],
    "external_urls" : {
      "spotify" : "https://open.spotify.com/album/02UhY4AQiAry5S2ZpgEKIt"
    },
    "href" : "https://api.spotify.com/v1/albums/02UhY4AQiAry5S2ZpgEKIt",
    "id" : "02UhY4AQiAry5S2ZpgEKIt",
    "images" : [ {
      "height" : 640,
      "url" : "https://i.scdn.co/image/ab67616d0000b273a8d0e95688b94d2dbb64bf27",
      "width" : 640
    }, {
      "height" : 300,
      "url" : "https://i.scdn.co/image/ab67616d00001e02a8d0e95688b94d2dbb64bf27",
      "width" : 300
    }, {
      "height" : 64,
      "url" : "https://i.scdn.co/image/ab67616d00004851a8d0e95688b94d2dbb64bf27",
      "width" : 64
    } ],
    "name" : "Salad Days Demos",
    "release_date" : "2014-06-17",
    "release_date_precision" : "day",
    "total_tracks" : 14,
    "type" : "album",
    "uri" : "spotify:album:02UhY4AQiAry5S2ZpgEKIt"
  }, {
    "album_group" : "album",
    "album_type" : "album",
    "artists" : [ {
      "external_urls" : {
        "spotify" : "https://open.spotify.com/artist/3Sz7ZnJQBIHsXLUSo0OQtM"
      },
      "href" : "https://api.spotify.com/v1/artists/3Sz7ZnJQBIHsXLUSo0OQtM",
      "id" : "3Sz7ZnJQBIHsXLUSo0OQtM",
      "name" : "Mac DeMarco",
      "type" : "artist",
      "uri" : "spotify:artist:3Sz7ZnJQBIHsXLUSo0OQtM"
    } ],
    "external_urls" : {
      "spotify" : "https://open.spotify.com/album/2sij95QgjmgrhNv33achzn"
    },
    "href" : "https://api.spotify.com/v1/albums/2sij95QgjmgrhNv33achzn",
    "id" : "2sij95QgjmgrhNv33achzn",
    "images" : [ {
      "height" : 640,
      "url" : "https://i.scdn.co/image/ab67616d0000b273ec6e9c13eeed14eedbd5f7c9",
      "width" : 640
    }, {
      "height" : 300,
      "url" : "https://i.scdn.co/image/ab67616d00001e02ec6e9c13eeed14eedbd5f7c9",
      "width" : 300
    }, {
      "height" : 64,
      "url" : "https://i.scdn.co/image/ab67616d00004851ec6e9c13eeed14eedbd5f7c9",
      "width" : 64
    } ],
    "name" : "Salad Days",
    "release_date" : "2014-04-01",
    "release_date_precision" : "day",
    "total_tracks" : 11,
    "type" : "album",
    "uri" : "spotify:album:2sij95QgjmgrhNv33achzn"
  }, {
    "album_group" : "album",
    "album_type" : "album",
    "artists" : [ {
      "external_urls" : {
        "spotify" : "https://open.spotify.com/artist/3Sz7ZnJQBIHsXLUSo0OQtM"
      },
      "href" : "https://api.spotify.com/v1/artists/3Sz7ZnJQBIHsXLUSo0OQtM",
      "id" : "3Sz7ZnJQBIHsXLUSo0OQtM",
      "name" : "Mac DeMarco",
      "type" : "artist",
      "uri" : "spotify:artist:3Sz7ZnJQBIHsXLUSo0OQtM"
    } ],
    "external_urls" : {
      "spotify" : "https://open.spotify.com/album/7xPhDaYZ2ejV04aNtdBdvj"
    },
    "href" : "https://api.spotify.com/v1/albums/7xPhDaYZ2ejV04aNtdBdvj",
    "id" : "7xPhDaYZ2ejV04aNtdBdvj",
    "images" : [ {
      "height" : 640,
      "url" : "https://i.scdn.co/image/ab67616d0000b273d29a6b42f592c433ee31104d",
      "width" : 640
    }, {
      "height" : 300,
      "url" : "https://i.scdn.co/image/ab67616d00001e02d29a6b42f592c433ee31104d",
      "width" : 300
    }, {
      "height" : 64,
      "url" : "https://i.scdn.co/image/ab67616d00004851d29a6b42f592c433ee31104d",
      "width" : 64
    } ],
    "name" : "Salad Days",
    "release_date" : "2014-03-28",
    "release_date_precision" : "day",
    "total_tracks" : 11,
    "type" : "album",
    "uri" : "spotify:album:7xPhDaYZ2ejV04aNtdBdvj"
  }, {
    "album_group" : "album",
    "album_type" : "album",
    "artists" : [ {
      "external_urls" : {
        "spotify" : "https://open.spotify.com/artist/3Sz7ZnJQBIHsXLUSo0OQtM"
      },
      "href" : "https://api.spotify.com/v1/artists/3Sz7ZnJQBIHsXLUSo0OQtM",
      "id" : "3Sz7ZnJQBIHsXLUSo0OQtM",
      "name" : "Mac DeMarco",
      "type" : "artist",
      "uri" : "spotify:artist:3Sz7ZnJQBIHsXLUSo0OQtM"
    } ],
    "external_urls" : {
      "spotify" : "https://open.spotify.com/album/6OfacVA7dz1R6n8qaa8yVh"
    },
    "href" : "https://api.spotify.com/v1/albums/6OfacVA7dz1R6n8qaa8yVh",
    "id" : "6OfacVA7dz1R6n8qaa8yVh",
    "images" : [ {
      "height" : 640,
      "url" : "https://i.scdn.co/image/ab67616d0000b2730d0730647044c93b3b0a37fa",
      "width" : 640
    }, {
      "height" : 300,
      "url" : "https://i.scdn.co/image/ab67616d00001e020d0730647044c93b3b0a37fa",
      "width" : 300
    }, {
      "height" : 64,
      "url" : "https://i.scdn.co/image/ab67616d000048510d0730647044c93b3b0a37fa",
      "width" : 64
    } ],
    "name" : "Live & Acoustic Vol. 1",
    "release_date" : "2013-12-14",
    "release_date_precision" : "day",
    "total_tracks" : 7,
    "type" : "album",
    "uri" : "spotify:album:6OfacVA7dz1R6n8qaa8yVh"
  }, {
    "album_group" : "album",
    "album_type" : "album",
    "artists" : [ {
      "external_urls" : {
        "spotify" : "https://open.spotify.com/artist/3Sz7ZnJQBIHsXLUSo0OQtM"
      },
      "href" : "https://api.spotify.com/v1/artists/3Sz7ZnJQBIHsXLUSo0OQtM",
      "id" : "3Sz7ZnJQBIHsXLUSo0OQtM",
      "name" : "Mac DeMarco",
      "type" : "artist",
      "uri" : "spotify:artist:3Sz7ZnJQBIHsXLUSo0OQtM"
    } ],
    "external_urls" : {
      "spotify" : "https://open.spotify.com/album/7pYV8ueufp0r0vnD1zkD0x"
    },
    "href" : "https://api.spotify.com/v1/albums/7pYV8ueufp0r0vnD1zkD0x",
    "id" : "7pYV8ueufp0r0vnD1zkD0x",
    "images" : [ {
      "height" : 640,
      "url" : "https://i.scdn.co/image/ab67616d0000b2734f8061895c341c4f974444fe",
      "width" : 640
    }, {
      "height" : 300,
      "url" : "https://i.scdn.co/image/ab67616d00001e024f8061895c341c4f974444fe",
      "width" : 300
    }, {
      "height" : 64,
      "url" : "https://i.scdn.co/image/ab67616d000048514f8061895c341c4f974444fe",
      "width" : 64
    } ],
    "name" : "2 Demos",
    "release_date" : "2013-11-15",
    "release_date_precision" : "day",
    "total_tracks" : 10,
    "type" : "album",
    "uri" : "spotify:album:7pYV8ueufp0r0vnD1zkD0x"
  }, {
    "album_group" : "album",
    "album_type" : "album",
    "artists" : [ {
      "external_urls" : {
        "spotify" : "https://open.spotify.com/artist/3Sz7ZnJQBIHsXLUSo0OQtM"
      },
      "href" : "https://api.spotify.com/v1/artists/3Sz7ZnJQBIHsXLUSo0OQtM",
      "id" : "3Sz7ZnJQBIHsXLUSo0OQtM",
      "name" : "Mac DeMarco",
      "type" : "artist",
      "uri" : "spotify:artist:3Sz7ZnJQBIHsXLUSo0OQtM"
    } ],
    "external_urls" : {
      "spotify" : "https://open.spotify.com/album/0Skv3s5A99n7dstiJOs0aA"
    },
    "href" : "https://api.spotify.com/v1/albums/0Skv3s5A99n7dstiJOs0aA",
    "id" : "0Skv3s5A99n7dstiJOs0aA",
    "images" : [ {
      "height" : 640,
      "url" : "https://i.scdn.co/image/ab67616d0000b273681384864fcbda288ed7d365",
      "width" : 640
    }, {
      "height" : 300,
      "url" : "https://i.scdn.co/image/ab67616d00001e02681384864fcbda288ed7d365",
      "width" : 300
    }, {
      "height" : 64,
      "url" : "https://i.scdn.co/image/ab67616d00004851681384864fcbda288ed7d365",
      "width" : 64
    } ],
    "name" : "2",
    "release_date" : "2013-08-09",
    "release_date_precision" : "day",
    "total_tracks" : 13,
    "type" : "album",
    "uri" : "spotify:album:0Skv3s5A99n7dstiJOs0aA"
  }, {
    "album_group" : "album",
    "album_type" : "album",
    "artists" : [ {
      "external_urls" : {
        "spotify" : "https://open.spotify.com/artist/3Sz7ZnJQBIHsXLUSo0OQtM"
      },
      "href" : "https://api.spotify.com/v1/artists/3Sz7ZnJQBIHsXLUSo0OQtM",
      "id" : "3Sz7ZnJQBIHsXLUSo0OQtM",
      "name" : "Mac DeMarco",
      "type" : "artist",
      "uri" : "spotify:artist:3Sz7ZnJQBIHsXLUSo0OQtM"
    } ],
    "external_urls" : {
      "spotify" : "https://open.spotify.com/album/2XgBQwGRxr4P7cHLDYiqrO"
    },
    "href" : "https://api.spotify.com/v1/albums/2XgBQwGRxr4P7cHLDYiqrO",
    "id" : "2XgBQwGRxr4P7cHLDYiqrO",
    "images" : [ {
      "height" : 640,
      "url" : "https://i.scdn.co/image/ab67616d0000b2739d377496c6bc8724b521222d",
      "width" : 640
    }, {
      "height" : 300,
      "url" : "https://i.scdn.co/image/ab67616d00001e029d377496c6bc8724b521222d",
      "width" : 300
    }, {
      "height" : 64,
      "url" : "https://i.scdn.co/image/ab67616d000048519d377496c6bc8724b521222d",
      "width" : 64
    } ],
    "name" : "2",
    "release_date" : "2012-10-16",
    "release_date_precision" : "day",
    "total_tracks" : 11,
    "type" : "album",
    "uri" : "spotify:album:2XgBQwGRxr4P7cHLDYiqrO"
  } ],
  "limit" : 20,
  "next" : "https://api.spotify.com/v1/artists/3Sz7ZnJQBIHsXLUSo0OQtM/albums?offset=20&limit=20&include_groups=album&market=CA",
  "offset" : 0,
  "previous" : null,
  "total" : 22
}
