{
  "href": "https://api.spotify.com/v1/albums/2gUfkZ9jhhYinKIunu7wxo/tracks?offset=0&limit=20",
  "items": [
    {
      "artists": [
        {
          "external_urls": {
            "spotify": "https://open.spotify.com/artist/3WrFJ7ztbogyGnTHbHJFl2"
          },
          "href": "https://api.spotify.com/v1/artists/3WrFJ7ztbogyGnTHbHJFl2",
          "id": "3WrFJ7ztbogyGnTHbHJFl2",
          "name": "The Beatles",
          "type": "artist",
          "uri": "spotify:artist:3WrFJ7ztbogyGnTHbHJFl2"
        }
      ],
      "available_markets": [
        "JP"
      ],
      "disc_number": 1,
      "duration_ms": 122133,
      "explicit": false,
      "external_urls": {
        "spotify": "https://open.spotify.com/track/7zoJlTUGcq4zMWJoiPDwSn"
      },
      "href": "https://api.spotify.com/v1/tracks/7zoJlTUGcq4zMWJoiPDwSn",
      "id": "7zoJlTUGcq4zMWJoiPDwSn",
      "is_local": false,
      "name": "Sgt. Pepper's Lonely Hearts Club Band - Remix",
      "preview_url": "https://p.scdn.co/mp3-preview/5b043fab638f3109a8061cfced86b7eeb94db5d8?cid=3db837a49d3c4df0a277b0adaa748d87",
      "track_number": 1,
      "type": "track",
      "uri": "spotify:track:7zoJlTUGcq4zMWJoiPDwSn"
    },
    {
      "artists": [
        {
          "external_urls": {
            "spotify": "https://open.spotify.com/artist/3WrFJ7ztbogyGnTHbHJFl2"
          },
          "href": "https://api.spotify.com/v1/artists/3WrFJ7ztbogyGnTHbHJFl2",
          "id": "3WrFJ7ztbogyGnTHbHJFl2",
          "name": "The Beatles",
          "type": "artist",
          "uri": "spotify:artist:3WrFJ7ztbogyGnTHbHJFl2"
        }
      ],
      "available_markets": [
        "JP"
      ],
      "disc_number": 1,
      "duration_ms": 165293,
      "explicit": false,
      "external_urls": {
        "spotify": "https://open.spotify.com/track/0eB3fPlVIqdz0X42l6HB3c"
      },
      "href": "https://api.spotify.com/v1/tracks/0eB3fPlVIqdz0X42l6HB3c",
      "id": "0eB3fPlVIqdz0X42l6HB3c",
      "is_local": false,
      "name": "With A Little Help From My Friends - Remix",
      "preview_url": "https://p.scdn.co/mp3-preview/36d41765de744172cf97c9e82349da3367c18525?cid=3db837a49d3c4df0a277b0adaa748d87",
      "track_number": 2,
      "type": "track",
      "uri": "spotify:track:0eB3fPlVIqdz0X42l6HB3c"
    },
    {
      "artists": [
        {
          "external_urls": {
            "spotify": "https://open.spotify.com/artist/3WrFJ7ztbogyGnTHbHJFl2"
          },
          "href": "https://api.spotify.com/v1/artists/3WrFJ7ztbogyGnTHbHJFl2",
          "id": "3WrFJ7ztbogyGnTHbHJFl2",
          "name": "The Beatles",
          "type": "artist",
          "uri": "spotify:artist:3WrFJ7ztbogyGnTHbHJFl2"
        }
      ],
      "available_markets": [
        "JP"
      ],
      "disc_number": 1,
      "duration_ms": 207680,
      "explicit": false,
      "external_urls": {
        "spotify": "https://open.spotify.com/track/2l7StUrMq3TBNG3g92ZPLo"
      },
      "href": "https://api.spotify.com/v1/tracks/2l7StUrMq3TBNG3g92ZPLo",
      "id": "2l7StUrMq3TBNG3g92ZPLo",
      "is_local": false,
      "name": "Lucy In The Sky With Diamonds - Remix",
      "preview_url": "https://p.scdn.co/mp3-preview/27ccf66e720e6407868afd8a5b56fe1194660e25?cid=3db837a49d3c4df0a277b0adaa748d87",
      "track_number": 3,
      "type": "track",
      "uri": "spotify:track:2l7StUrMq3TBNG3g92ZPLo"
    },
    {
      "artists": [
        {
          "external_urls": {
            "spotify": "https://open.spotify.com/artist/3WrFJ7ztbogyGnTHbHJFl2"
          },
          "href": "https://api.spotify.com/v1/artists/3WrFJ7ztbogyGnTHbHJFl2",
          "id": "3WrFJ7ztbogyGnTHbHJFl2",
          "name": "The Beatles",
          "type": "artist",
          "uri": "spotify:artist:3WrFJ7ztbogyGnTHbHJFl2"
        }
      ],
      "available_markets": [
        "JP"
      ],
      "disc_number": 1,
      "duration_ms": 167013,
      "explicit": false,
      "external_urls": {
        "spotify": "https://open.spotify.com/track/1853kVDomk41P3B2PD85wR"
      },
      "href": "https://api.spotify.com/v1/tracks/1853kVDomk41P3B2PD85wR",
      "id": "1853kVDomk41P3B2PD85wR",
      "is_local": false,
      "name": "Getting Better - Remix",
      "preview_url": "https://p.scdn.co/mp3-preview/adb586bc814027c81cdb2e71cc5594e3d5623dbb?cid=3db837a49d3c4df0a277b0adaa748d87",
      "track_number": 4,
      "type": "track",
      "uri": "spotify:track:1853kVDomk41P3B2PD85wR"
    },
    {
      "artists": [
        {
          "external_urls": {
            "spotify": "https://open.spotify.com/artist/3WrFJ7ztbogyGnTHbHJFl2"
          },
          "href": "https://api.spotify.com/v1/artists/3WrFJ7ztbogyGnTHbHJFl2",
          "id": "3WrFJ7ztbogyGnTHbHJFl2",
          "name": "The Beatles",
          "type": "artist",
          "uri": "spotify:artist:3WrFJ7ztbogyGnTHbHJFl2"
        }
      ],
      "available_markets": [
        "JP"
      ],
      "disc_number": 1,
      "duration_ms": 157960,
      "explicit": false,
      "external_urls": {
        "spotify": "https://open.spotify.com/track/7agGeT7dfeRjUf8S9CZhRr"
      },
      "href": "https://api.spotify.com/v1/tracks/7agGeT7dfeRjUf8S9CZhRr",
      "id": "7agGeT7dfeRjUf8S9CZhRr",
      "is_local": false,
      "name": "Fixing A Hole - Remix",
      "preview_url": "https://p.scdn.co/mp3-preview/84362e4c2c94f7a3743caafb3bfc6b6bbf76ad47?cid=3db837a49d3c4df0a277b0adaa748d87",
      "track_number": 5,
      "type": "track",
      "uri": "spotify:track:7agGeT7dfeRjUf8S9CZhRr"
    },
    {
      "artists": [
        {
          "external_urls": {
            "spotify": "https://open.spotify.com/artist/3WrFJ7ztbogyGnTHbHJFl2"
          },
          "href": "https://api.spotify.com/v1/artists/3WrFJ7ztbogyGnTHbHJFl2",
          "id": "3WrFJ7ztbogyGnTHbHJFl2",
          "name": "The Beatles",
          "type": "artist",
          "uri": "spotify:artist:3WrFJ7ztbogyGnTHbHJFl2"
        }
      ],
      "available_markets": [
        "JP"
      ],
      "disc_number": 1,
      "duration_ms": 205840,
      "explicit": false,
      "external_urls": {
        "spotify": "https://open.spotify.com/track/3uL97vJsnNFru4c9k2eXf0"
      },
      "href": "https://api.spotify.com/v1/tracks/3uL97vJsnNFru4c9k2eXf0",
      "id": "3uL97vJsnNFru4c9k2eXf0",
      "is_local": false,
      "name": "She's Leaving Home - Remix",
      "preview_url": "https://p.scdn.co/mp3-preview/5495c7eb0e50e3b845f1efbcf6ac6c37505ca630?cid=3db837a49d3c4df0a277b0adaa748d87",
      "track_number": 6,
      "type": "track",
      "uri": "spotify:track:3uL97vJsnNFru4c9k2eXf0"
    },
    {
      "artists": [
        {
          "external_urls": {
            "spotify": "https://open.spotify.com/artist/3WrFJ7ztbogyGnTHbHJFl2"
          },
          "href": "https://api.spotify.com/v1/artists/3WrFJ7ztbogyGnTHbHJFl2",
          "id": "3WrFJ7ztbogyGnTHbHJFl2",
          "name": "The Beatles",
          "type": "artist",
          "uri": "spotify:artist:3WrFJ7ztbogyGnTHbHJFl2"
        }
      ],
      "available_markets": [
        "JP"
      ],
      "disc_number": 1,
      "duration_ms": 159200,
      "explicit": false,
      "external_urls": {
        "spotify": "https://open.spotify.com/track/1gfoktQQnT1ZP8VD8ugcbf"
      },
      "href": "https://api.spotify.com/v1/tracks/1gfoktQQnT1ZP8VD8ugcbf",
      "id": "1gfoktQQnT1ZP8VD8ugcbf",
      "is_local": false,
      "name": "Being For The Benefit Of Mr. Kite! - Remix",
      "preview_url": "https://p.scdn.co/mp3-preview/b638c1ffd6ab47a0e5d54c1e93d81fd198571a8e?cid=3db837a49d3c4df0a277b0adaa748d87",
      "track_number": 7,
      "type": "track",
      "uri": "spotify:track:1gfoktQQnT1ZP8VD8ugcbf"
    },
    {
      "artists": [
        {
          "external_urls": {
            "spotify": "https://open.spotify.com/artist/3WrFJ7ztbogyGnTHbHJFl2"
          },
          "href": "https://api.spotify.com/v1/artists/3WrFJ7ztbogyGnTHbHJFl2",
          "id": "3WrFJ7ztbogyGnTHbHJFl2",
          "name": "The Beatles",
          "type": "artist",
          "uri": "spotify:artist:3WrFJ7ztbogyGnTHbHJFl2"
        }
      ],
      "available_markets": [
        "JP"
      ],
      "disc_number": 1,
      "duration_ms": 307586,
      "explicit": false,
      "external_urls": {
        "spotify": "https://open.spotify.com/track/6FIvJKb7VLeUKVXNqYmYDI"
      },
      "href": "https://api.spotify.com/v1/tracks/6FIvJKb7VLeUKVXNqYmYDI",
      "id": "6FIvJKb7VLeUKVXNqYmYDI",
      "is_local": false,
      "name": "Within You Without You - Remix",
      "preview_url": "https://p.scdn.co/mp3-preview/d7a5bf2961546a9faf5bd244ae89633459cea8e4?cid=3db837a49d3c4df0a277b0adaa748d87",
      "track_number": 8,
      "type": "track",
      "uri": "spotify:track:6FIvJKb7VLeUKVXNqYmYDI"
    },
    {
      "artists": [
        {
          "external_urls": {
            "spotify": "https://open.spotify.com/artist/3WrFJ7ztbogyGnTHbHJFl2"
          },
          "href": "https://api.spotify.com/v1/artists/3WrFJ7ztbogyGnTHbHJFl2",
          "id": "3WrFJ7ztbogyGnTHbHJFl2",
          "name": "The Beatles",
          "type": "artist",
          "uri": "spotify:artist:3WrFJ7ztbogyGnTHbHJFl2"
        }
      ],
      "available_markets": [
        "JP"
      ],
      "disc_number": 1,
      "duration_ms": 160013,
      "explicit": false,
      "external_urls": {
        "spotify": "https://open.spotify.com/track/5IwjRLoxRNd3dmSjtZcjAw"
      },
      "href": "https://api.spotify.com/v1/tracks/5IwjRLoxRNd3dmSjtZcjAw",
      "id": "5IwjRLoxRNd3dmSjtZcjAw",
      "is_local": false,
      "name": "When I'm Sixty-Four - Remix",
      "preview_url": "https://p.scdn.co/mp3-preview/62d985832ea0368aacb01be7b921695e2269de1e?cid=3db837a49d3c4df0a277b0adaa748d87",
      "track_number": 9,
      "type": "track",
      "uri": "spotify:track:5IwjRLoxRNd3dmSjtZcjAw"
    },
    {
      "artists": [
        {
          "external_urls": {
            "spotify": "https://open.spotify.com/artist/3WrFJ7ztbogyGnTHbHJFl2"
          },
          "href": "https://api.spotify.com/v1/artists/3WrFJ7ztbogyGnTHbHJFl2",
          "id": "3WrFJ7ztbogyGnTHbHJFl2",
          "name": "The Beatles",
          "type": "artist",
          "uri": "spotify:artist:3WrFJ7ztbogyGnTHbHJFl2"
        }
      ],
      "available_markets": [
        "JP"
      ],
      "disc_number": 1,
      "duration_ms": 165800,
      "explicit": false,
      "external_urls": {
        "spotify": "https://open.spotify.com/track/5ImvIyUrVT1EP3alE21S7F"
      },
      "href": "https://api.spotify.com/v1/tracks/5ImvIyUrVT1EP3alE21S7F",
      "id": "5ImvIyUrVT1EP3alE21S7F",
      "is_local": false,
      "name": "Lovely Rita - Remix",
      "preview_url": "https://p.scdn.co/mp3-preview/aa291e4a99ab8c6cd9259fdf523a25b86e39d179?cid=3db837a49d3c4df0a277b0adaa748d87",
      "track_number": 10,
      "type": "track",
      "uri": "spotify:track:5ImvIyUrVT1EP3alE21S7F"
    },
    {
      "artists": [
        {
          "external_urls": {
            "spotify": "https://open.spotify.com/artist/3WrFJ7ztbogyGnTHbHJFl2"
          },
          "href": "https://api.spotify.com/v1/artists/3WrFJ7ztbogyGnTHbHJFl2",
          "id": "3WrFJ7ztbogyGnTHbHJFl2",
          "name": "The Beatles",
          "type": "artist",
          "uri": "spotify:artist:3WrFJ7ztbogyGnTHbHJFl2"
        }
      ],
      "available_markets": [
        "JP"
      ],
      "disc_number": 1,
      "duration_ms": 154466,
      "explicit": false,
      "external_urls": {
        "spotify": "https://open.spotify.com/track/3xaBPqAkq22sCNcZe1tV0V"
      },
      "href": "https://api.spotify.com/v1/tracks/3xaBPqAkq22sCNcZe1tV0V",
      "id": "3xaBPqAkq22sCNcZe1tV0V",
      "is_local": false,
      "name": "Good Morning Good Morning - Remix",
      "preview_url": "https://p.scdn.co/mp3-preview/4f7743a1282f8eedce7caecae2a4421c53b8c54b?cid=3db837a49d3c4df0a277b0adaa748d87",
      "track_number": 11,
      "type": "track",
      "uri": "spotify:track:3xaBPqAkq22sCNcZe1tV0V"
    },
    {
      "artists": [
        {
          "external_urls": {
            "spotify": "https://open.spotify.com/artist/3WrFJ7ztbogyGnTHbHJFl2"
          },
          "href": "https://api.spotify.com/v1/artists/3WrFJ7ztbogyGnTHbHJFl2",
          "id": "3WrFJ7ztbogyGnTHbHJFl2",
          "name": "The Beatles",
          "type": "artist",
          "uri": "spotify:artist:3WrFJ7ztbogyGnTHbHJFl2"
        }
      ],
      "available_markets": [
        "JP"
      ],
      "disc_number": 1,
      "duration_ms": 80600,
      "explicit": false,
      "external_urls": {
        "spotify": "https://open.spotify.com/track/2dz3bRnbwOuKWD03cVc720"
      },
      "href": "https://api.spotify.com/v1/tracks/2dz3bRnbwOuKWD03cVc720",
      "id": "2dz3bRnbwOuKWD03cVc720",
      "is_local": false,
      "name": "Sgt. Pepper's Lonely Hearts Club Band (Reprise) - Remix",
      "preview_url": "https://p.scdn.co/mp3-preview/f293944a54d7627d85bd3b9ad9e4a06cd7bb62dc?cid=3db837a49d3c4df0a277b0adaa748d87",
      "track_number": 12,
      "type": "track",
      "uri": "spotify:track:2dz3bRnbwOuKWD03cVc720"
    },
    {
      "artists": [
        {
          "external_urls": {
            "spotify": "https://open.spotify.com/artist/3WrFJ7ztbogyGnTHbHJFl2"
          },
          "href": "https://api.spotify.com/v1/artists/3WrFJ7ztbogyGnTHbHJFl2",
          "id": "3WrFJ7ztbogyGnTHbHJFl2",
          "name": "The Beatles",
          "type": "artist",
          "uri": "spotify:artist:3WrFJ7ztbogyGnTHbHJFl2"
        }
      ],
      "available_markets": [
        "JP"
      ],
      "disc_number": 1,
      "duration_ms": 330920,
      "explicit": false,
      "external_urls": {
        "spotify": "https://open.spotify.com/track/5cmMh3PpN0A2LjAQIzBaoy"
      },
      "href": "https://api.spotify.com/v1/tracks/5cmMh3PpN0A2LjAQIzBaoy",
      "id": "5cmMh3PpN0A2LjAQIzBaoy",
      "is_local": false,
      "name": "A Day In The Life - Remix",
      "preview_url": "https://p.scdn.co/mp3-preview/00ce15180c77875d30c2eafb389c34ad41dab446?cid=3db837a49d3c4df0a277b0adaa748d87",
      "track_number": 13,
      "type": "track",
      "uri": "spotify:track:5cmMh3PpN0A2LjAQIzBaoy"
    },
    {
      "artists": [
        {
          "external_urls": {
            "spotify": "https://open.spotify.com/artist/3WrFJ7ztbogyGnTHbHJFl2"
          },
          "href": "https://api.spotify.com/v1/artists/3WrFJ7ztbogyGnTHbHJFl2",
          "id": "3WrFJ7ztbogyGnTHbHJFl2",
          "name": "The Beatles",
          "type": "artist",
          "uri": "spotify:artist:3WrFJ7ztbogyGnTHbHJFl2"
        }
      ],
      "available_markets": [
        "JP"
      ],
      "disc_number": 2,
      "duration_ms": 156440,
      "explicit": false,
      "external_urls": {
        "spotify": "https://open.spotify.com/track/7plwLKEflIAavCajsQjeQX"
      },
      "href": "https://api.spotify.com/v1/tracks/7plwLKEflIAavCajsQjeQX",
      "id": "7plwLKEflIAavCajsQjeQX",
      "is_local": false,
      "name": "Sgt. Pepper's Lonely Hearts Club Band - Take 9 And Speech",
      "preview_url": "https://p.scdn.co/mp3-preview/21cee55007bf29f5344e198fdbacf82f3a210881?cid=3db837a49d3c4df0a277b0adaa748d87",
      "track_number": 1,
      "type": "track",
      "uri": "spotify:track:7plwLKEflIAavCajsQjeQX"
    },
    {
      "artists": [
        {
          "external_urls": {
            "spotify": "https://open.spotify.com/artist/3WrFJ7ztbogyGnTHbHJFl2"
          },
          "href": "https://api.spotify.com/v1/artists/3WrFJ7ztbogyGnTHbHJFl2",
          "id": "3WrFJ7ztbogyGnTHbHJFl2",
          "name": "The Beatles",
          "type": "artist",
          "uri": "spotify:artist:3WrFJ7ztbogyGnTHbHJFl2"
        }
      ],
      "available_markets": [
        "JP"
      ],
      "disc_number": 2,
      "duration_ms": 196520,
      "explicit": false,
      "external_urls": {
        "spotify": "https://open.spotify.com/track/3fhGTS8IdEpLDoNDoDQPNm"
      },
      "href": "https://api.spotify.com/v1/tracks/3fhGTS8IdEpLDoNDoDQPNm",
      "id": "3fhGTS8IdEpLDoNDoDQPNm",
      "is_local": false,
      "name": "With A Little Help From My Friends - Take 1 / False Start And Take 2 / Instrumental",
      "preview_url": "https://p.scdn.co/mp3-preview/ca98aa1a3c491c117c107f80790e91dca4fc89ff?cid=3db837a49d3c4df0a277b0adaa748d87",
      "track_number": 2,
      "type": "track",
      "uri": "spotify:track:3fhGTS8IdEpLDoNDoDQPNm"
    },
    {
      "artists": [
        {
          "external_urls": {
            "spotify": "https://open.spotify.com/artist/3WrFJ7ztbogyGnTHbHJFl2"
          },
          "href": "https://api.spotify.com/v1/artists/3WrFJ7ztbogyGnTHbHJFl2",
          "id": "3WrFJ7ztbogyGnTHbHJFl2",
          "name": "The Beatles",
          "type": "artist",
          "uri": "spotify:artist:3WrFJ7ztbogyGnTHbHJFl2"
        }
      ],
      "available_markets": [
        "JP"
      ],
      "disc_number": 2,
      "duration_ms": 238866,
      "explicit": false,
      "external_urls": {
        "spotify": "https://open.spotify.com/track/0dPGx0uno4PBUvkfSmzUnj"
      },
      "href": "https://api.spotify.com/v1/tracks/0dPGx0uno4PBUvkfSmzUnj",
      "id": "0dPGx0uno4PBUvkfSmzUnj",
      "is_local": false,
      "name": "Lucy In The Sky With Diamonds - Take 1",
      "preview_url": "https://p.scdn.co/mp3-preview/bcbec200152dc7b4bb2db3e98e8d372e98432f13?cid=3db837a49d3c4df0a277b0adaa748d87",
      "track_number": 3,
      "type": "track",
      "uri": "spotify:track:0dPGx0uno4PBUvkfSmzUnj"
    },
    {
      "artists": [
        {
          "external_urls": {
            "spotify": "https://open.spotify.com/artist/3WrFJ7ztbogyGnTHbHJFl2"
          },
          "href": "https://api.spotify.com/v1/artists/3WrFJ7ztbogyGnTHbHJFl2",
          "id": "3WrFJ7ztbogyGnTHbHJFl2",
          "name": "The Beatles",
          "type": "artist",
          "uri": "spotify:artist:3WrFJ7ztbogyGnTHbHJFl2"
        }
      ],
      "available_markets": [
        "JP"
      ],
      "disc_number": 2,
      "duration_ms": 138533,
      "explicit": false,
      "external_urls": {
        "spotify": "https://open.spotify.com/track/6N1cEEdyJu7tqejHQExzJj"
      },
      "href": "https://api.spotify.com/v1/tracks/6N1cEEdyJu7tqejHQExzJj",
      "id": "6N1cEEdyJu7tqejHQExzJj",
      "is_local": false,
      "name": "Getting Better - Take 1 / Instrumental And Speech At The End",
      "preview_url": "https://p.scdn.co/mp3-preview/3ab57e6159ed59b3593b65a37d452acec57407c2?cid=3db837a49d3c4df0a277b0adaa748d87",
      "track_number": 4,
      "type": "track",
      "uri": "spotify:track:6N1cEEdyJu7tqejHQExzJj"
    },
    {
      "artists": [
        {
          "external_urls": {
            "spotify": "https://open.spotify.com/artist/3WrFJ7ztbogyGnTHbHJFl2"
          },
          "href": "https://api.spotify.com/v1/artists/3WrFJ7ztbogyGnTHbHJFl2",
          "id": "3WrFJ7ztbogyGnTHbHJFl2",
          "name": "The Beatles",
          "type": "artist",
          "uri": "spotify:artist:3WrFJ7ztbogyGnTHbHJFl2"
        }
      ],
      "available_markets": [
        "JP"
      ],
      "disc_number": 2,
      "duration_ms": 207840,
      "explicit": false,
      "external_urls": {
        "spotify": "https://open.spotify.com/track/4n9UxoJpIY7Jb74USLNdHy"
      },
      "href": "https://api.spotify.com/v1/tracks/4n9UxoJpIY7Jb74USLNdHy",
      "id": "4n9UxoJpIY7Jb74USLNdHy",
      "is_local": false,
      "name": "Fixing A Hole - Speech And Take 3",
      "preview_url": "https://p.scdn.co/mp3-preview/eb06eb9452ec33a68b20075c56e3b8395a27b19b?cid=3db837a49d3c4df0a277b0adaa748d87",
      "track_number": 5,
      "type": "track",
      "uri": "spotify:track:4n9UxoJpIY7Jb74USLNdHy"
    },
    {
      "artists": [
        {
          "external_urls": {
            "spotify": "https://open.spotify.com/artist/3WrFJ7ztbogyGnTHbHJFl2"
          },
          "href": "https://api.spotify.com/v1/artists/3WrFJ7ztbogyGnTHbHJFl2",
          "id": "3WrFJ7ztbogyGnTHbHJFl2",
          "name": "The Beatles",
          "type": "artist",
          "uri": "spotify:artist:3WrFJ7ztbogyGnTHbHJFl2"
        }
      ],
      "available_markets": [
        "JP"
      ],
      "disc_number": 2,
      "duration_ms": 229120,
      "explicit": false,
      "external_urls": {
        "spotify": "https://open.spotify.com/track/1R3nG4KDTjmtGlK01gh8ah"
      },
      "href": "https://api.spotify.com/v1/tracks/1R3nG4KDTjmtGlK01gh8ah",
      "id": "1R3nG4KDTjmtGlK01gh8ah",
      "is_local": false,
      "name": "She's Leaving Home - Take 1 / Instrumental",
      "preview_url": "https://p.scdn.co/mp3-preview/6685343bf35eeca2dc226cc121f31dee7ca5d2f3?cid=3db837a49d3c4df0a277b0adaa748d87",
      "track_number": 6,
      "type": "track",
      "uri": "spotify:track:1R3nG4KDTjmtGlK01gh8ah"
    },
    {
      "artists": [
        {
          "external_urls": {
            "spotify": "https://open.spotify.com/artist/3WrFJ7ztbogyGnTHbHJFl2"
          },
          "href": "https://api.spotify.com/v1/artists/3WrFJ7ztbogyGnTHbHJFl2",
          "id": "3WrFJ7ztbogyGnTHbHJFl2",
          "name": "The Beatles",
          "type": "artist",
          "uri": "spotify:artist:3WrFJ7ztbogyGnTHbHJFl2"
        }
      ],
      "available_markets": [
        "JP"
      ],
      "disc_number": 2,
      "duration_ms": 187213,
      "explicit": false,
      "external_urls": {
        "spotify": "https://open.spotify.com/track/1Pe03qt9RAB8sRirNYgqja"
      },
      "href": "https://api.spotify.com/v1/tracks/1Pe03qt9RAB8sRirNYgqja",
      "id": "1Pe03qt9RAB8sRirNYgqja",
      "is_local": false,
      "name": "Being For The Benefit Of Mr. Kite! - Take 4",
      "preview_url": "https://p.scdn.co/mp3-preview/487767d2973593cf61436cd0b95e3a5751741187?cid=3db837a49d3c4df0a277b0adaa748d87",
      "track_number": 7,
      "type": "track",
      "uri": "spotify:track:1Pe03qt9RAB8sRirNYgqja"
    }
  ],
  "limit": 20,
  "next": "https://api.spotify.com/v1/albums/2gUfkZ9jhhYinKIunu7wxo/tracks?offset=20&limit=20",
  "offset": 0,
  "previous": null,
  "total": 31
}
