{
  "items": [
    {
      "external_urls": {
        "spotify": "https://open.spotify.com/artist/0mL6LBSQ4bHe6hWq90KzHL"
      },
      "followers": {
        "href": null,
        "total": 69050
      },
      "genres": [
        "art punk",
        "modern rock",
        "neo-psychedelic"
      ],
      "href": "https://api.spotify.com/v1/artists/0mL6LBSQ4bHe6hWq90KzHL",
      "id": "0mL6LBSQ4bHe6hWq90KzHL",
      "images": [
        {
          "height": 640,
          "url": "https://i.scdn.co/image/ab6761610000e5eb6e5de3e1d9b2253334aa7b7e",
          "width": 640
        },
        {
          "height": 320,
          "url": "https://i.scdn.co/image/ab676161000051746e5de3e1d9b2253334aa7b7e",
          "width": 320
        },
        {
          "height": 160,
          "url": "https://i.scdn.co/image/ab6761610000f1786e5de3e1d9b2253334aa7b7e",
          "width": 160
        }
      ],
      "name": "Tropical Fuck Storm",
      "popularity": 44,
      "type": "artist",
      "uri": "spotify:artist:0mL6LBSQ4bHe6hWq90KzHL"
    },
    {
      "external_urls": {
        "spotify": "https://open.spotify.com/artist/0rH93aHDYyJfMAcPB9OKus"
      },
      "followers": {
        "href": null,
        "total": 79264
      },
      "genres": [
        "australian garage punk",
        "indie garage rock",
        "neo-psychedelic"
      ],
      "href": "https://api.spotify.com/v1/artists/0rH93aHDYyJfMAcPB9OKus",
      "id": "0rH93aHDYyJfMAcPB9OKus",
      "images": [
        {
          "height": 640,
          "url": "https://i.scdn.co/image/ab6761610000e5eb84cbeb8d84b930f8c8d8e854",
          "width": 640
        },
        {
          "height": 320,
          "url": "https://i.scdn.co/image/ab6761610000517484cbeb8d84b930f8c8d8e854",
          "width": 320
        },
        {
          "height": 160,
          "url": "https://i.scdn.co/image/ab6761610000f17884cbeb8d84b930f8c8d8e854",
          "width": 160
        }
      ],
      "name": "The Murlocs",
      "popularity": 47,
      "type": "artist",
      "uri": "spotify:artist:0rH93aHDYyJfMAcPB9OKus"
    }
  ],
  "total": 50,
  "limit": 3,
  "offset": 12,
  "href": "https://api.spotify.com/v1/me/top/artists?limit=3&offset=12",
  "previous": "https://api.spotify.com/v1/me/top/artists?limit=3&offset=9",
  "next": "https://api.spotify.com/v1/me/top/artists?limit=3&offset=15"
}
