{
  "items" : [ {
    "external_urls" : {
      "spotify" : "https://open.spotify.com/artist/65mMkD9WW39U9Yadv0dWUF"
    },
    "followers" : {
      "href" : null,
      "total" : 83331
    },
    "genres" : [ "australian garage punk", "indie rock", "modern jangle pop", "modern rock" ],
    "href" : "https://api.spotify.com/v1/artists/65mMkD9WW39U9Yadv0dWUF",
    "id" : "65mMkD9WW39U9Yadv0dWUF",
    "images" : [ {
      "height" : 640,
      "url" : "https://i.scdn.co/image/ab6761610000e5ebcd1aba15f31f09acf3eae533",
      "width" : 640
    }, {
      "height" : 320,
      "url" : "https://i.scdn.co/image/ab67616100005174cd1aba15f31f09acf3eae533",
      "width" : 320
    }, {
      "height" : 160,
      "url" : "https://i.scdn.co/image/ab6761610000f178cd1aba15f31f09acf3eae533",
      "width" : 160
    } ],
    "name" : "Rolling Blackouts Coastal Fever",
    "popularity" : 47,
    "type" : "artist",
    "uri" : "spotify:artist:65mMkD9WW39U9Yadv0dWUF"
  }, {
    "external_urls" : {
      "spotify" : "https://open.spotify.com/artist/1LeVJ5GPeYDOVUjxx1y7Rp"
    },
    "followers" : {
      "href" : null,
      "total" : 682064
    },
    "genres" : [ "chillwave", "indie rock", "indie soul", "kiwi rock", "neo-psychedelic", "portland hip hop", "psychedelic pop" ],
    "href" : "https://api.spotify.com/v1/artists/1LeVJ5GPeYDOVUjxx1y7Rp",
    "id" : "1LeVJ5GPeYDOVUjxx1y7Rp",
    "images" : [ {
      "height" : 640,
      "url" : "https://i.scdn.co/image/ab6761610000e5eb15f40363a8743ff0ee406244",
      "width" : 640
    }, {
      "height" : 320,
      "url" : "https://i.scdn.co/image/ab6761610000517415f40363a8743ff0ee406244",
      "width" : 320
    }, {
      "height" : 160,
      "url" : "https://i.scdn.co/image/ab6761610000f17815f40363a8743ff0ee406244",
      "width" : 160
    } ],
    "name" : "Unknown Mortal Orchestra",
    "popularity" : 65,
    "type" : "artist",
    "uri" : "spotify:artist:1LeVJ5GPeYDOVUjxx1y7Rp"
  }, {
    "external_urls" : {
      "spotify" : "https://open.spotify.com/artist/4V8LLVI7PbaPR0K2TGSxFF"
    },
    "followers" : {
      "href" : null,
      "total" : 7080883
    },
    "genres" : [ "hip hop", "rap" ],
    "href" : "https://api.spotify.com/v1/artists/4V8LLVI7PbaPR0K2TGSxFF",
    "id" : "4V8LLVI7PbaPR0K2TGSxFF",
    "images" : [ {
      "height" : 640,
      "url" : "https://i.scdn.co/image/ab6761610000e5eb8278b782cbb5a3963db88ada",
      "width" : 640
    }, {
      "height" : 320,
      "url" : "https://i.scdn.co/image/ab676161000051748278b782cbb5a3963db88ada",
      "width" : 320
    }, {
      "height" : 160,
      "url" : "https://i.scdn.co/image/ab6761610000f1788278b782cbb5a3963db88ada",
      "width" : 160
    } ],
    "name" : "Tyler, The Creator",
    "popularity" : 86,
    "type" : "artist",
    "uri" : "spotify:artist:4V8LLVI7PbaPR0K2TGSxFF"
  } ],
  "total" : 50,
  "limit" : 3,
  "offset" : 6,
  "href" : "https://api.spotify.com/v1/me/top/artists?limit=3&offset=6",
  "previous" : "https://api.spotify.com/v1/me/top/artists?limit=3&offset=3",
  "next" : "https://api.spotify.com/v1/me/top/artists?limit=3&offset=9"
}
