{
  "items" : [ {
    "external_urls" : {
      "spotify" : "https://open.spotify.com/artist/4Z8W4fKeB5YxbusRsdQVPb"
    },
    "followers" : {
      "href" : null,
      "total" : 6461181
    },
    "genres" : [ "alternative rock", "art rock", "melancholia", "oxford indie", "permanent wave", "rock" ],
    "href" : "https://api.spotify.com/v1/artists/4Z8W4fKeB5YxbusRsdQVPb",
    "id" : "4Z8W4fKeB5YxbusRsdQVPb",
    "images" : [ {
      "height" : 640,
      "url" : "https://i.scdn.co/image/ab6761610000e5eba03696716c9ee605006047fd",
      "width" : 640
    }, {
      "height" : 320,
      "url" : "https://i.scdn.co/image/ab67616100005174a03696716c9ee605006047fd",
      "width" : 320
    }, {
      "height" : 160,
      "url" : "https://i.scdn.co/image/ab6761610000f178a03696716c9ee605006047fd",
      "width" : 160
    } ],
    "name" : "Radiohead",
    "popularity" : 80,
    "type" : "artist",
    "uri" : "spotify:artist:4Z8W4fKeB5YxbusRsdQVPb"
  }, {
    "external_urls" : {
      "spotify" : "https://open.spotify.com/artist/6Ghvu1VvMGScGpOUJBAHNH"
    },
    "followers" : {
      "href" : null,
      "total" : 2138313
    },
    "genres" : [ "alternative metal", "nu metal", "rap metal", "rock", "sacramento indie" ],
    "href" : "https://api.spotify.com/v1/artists/6Ghvu1VvMGScGpOUJBAHNH",
    "id" : "6Ghvu1VvMGScGpOUJBAHNH",
    "images" : [ {
      "height" : 640,
      "url" : "https://i.scdn.co/image/ab6761610000e5eb63cf3ab77eddbcf44bf96521",
      "width" : 640
    }, {
      "height" : 320,
      "url" : "https://i.scdn.co/image/ab6761610000517463cf3ab77eddbcf44bf96521",
      "width" : 320
    }, {
      "height" : 160,
      "url" : "https://i.scdn.co/image/ab6761610000f17863cf3ab77eddbcf44bf96521",
      "width" : 160
    } ],
    "name" : "Deftones",
    "popularity" : 73,
    "type" : "artist",
    "uri" : "spotify:artist:6Ghvu1VvMGScGpOUJBAHNH"
  }, {
    "external_urls" : {
      "spotify" : "https://open.spotify.com/artist/58XGUNsRNu3cVOIOYk5chx"
    },
    "followers" : {
      "href" : null,
      "total" : 277103
    },
    "genres" : [ "alternative rock", "bay area indie", "blues rock", "freak folk", "garage pop", "garage psych", "garage rock", "indie garage rock", "indie rock", "modern rock", "neo-psychedelic", "noise pop", "oc indie", "punk blues" ],
    "href" : "https://api.spotify.com/v1/artists/58XGUNsRNu3cVOIOYk5chx",
    "id" : "58XGUNsRNu3cVOIOYk5chx",
    "images" : [ {
      "height" : 640,
      "url" : "https://i.scdn.co/image/ab6761610000e5eb1284380d1fe4a7f9d22bfd0a",
      "width" : 640
    }, {
      "height" : 320,
      "url" : "https://i.scdn.co/image/ab676161000051741284380d1fe4a7f9d22bfd0a",
      "width" : 320
    }, {
      "height" : 160,
      "url" : "https://i.scdn.co/image/ab6761610000f1781284380d1fe4a7f9d22bfd0a",
      "width" : 160
    } ],
    "name" : "Ty Segall",
    "popularity" : 54,
    "type" : "artist",
    "uri" : "spotify:artist:58XGUNsRNu3cVOIOYk5chx"
  } ],
  "total" : 50,
  "limit" : 3,
  "offset" : 9,
  "href" : "https://api.spotify.com/v1/me/top/artists?limit=3&offset=9",
  "previous" : "https://api.spotify.com/v1/me/top/artists?limit=3&offset=6",
  "next" : "https://api.spotify.com/v1/me/top/artists?limit=3&offset=12"
}
